-------------------------------------------------------------------------------
Test set: com.kcd67.BfsNotFoundTest
-------------------------------------------------------------------------------
Tests run: 1, Failures: 0, Errors: 0, Skipped: 0, Time elapsed: 0.008 s - in com.kcd67.BfsNotFoundTest
